# Blender MTL File: 'Trailer_02.blend'
# Material Count: 2

newmtl straße
Ns 225.000000
Ka 1.000000 1.000000 1.000000
Kd 0.119276 0.119276 0.119276
Ks 0.500000 0.500000 0.500000
Ke 0.0 0.0 0.0
Ni 1.450000
d 1.000000
illum 2

newmtl wand_neu
Ns 225.000000
Ka 1.000000 1.000000 1.000000
Kd 0.800000 0.099521 0.028710
Ks 0.500000 0.500000 0.500000
Ke 0.0 0.0 0.0
Ni 1.450000
d 1.000000
illum 2
