[gd_scene load_steps=8 format=2]

[ext_resource path="res://assets/particles/textures/fire_particle.png" type="Texture" id=1]

[sub_resource type="CanvasItemMaterial" id=1]
blend_mode = 1

[sub_resource type="Curve" id=2]
min_value = -360.0
max_value = 360.0
_data = [ Vector2( 0, 1 ), 0.0, 0.0, 0, 0, Vector2( 1, 85.0781 ), 0.0, 0.0, 0, 0 ]

[sub_resource type="CurveTexture" id=3]
curve = SubResource( 2 )

[sub_resource type="Curve" id=4]
_data = [ Vector2( 0, 1 ), 0.0, 0.0, 0, 0, Vector2( 1, 0.295898 ), 0.0, 0.0, 0, 0 ]

[sub_resource type="CurveTexture" id=5]
curve = SubResource( 4 )

[sub_resource type="ParticlesMaterial" id=6]
emission_shape = 1
emission_sphere_radius = 25.0
flag_disable_z = true
gravity = Vector3( 0, -26, 0 )
initial_velocity = 1.0
initial_velocity_random = 0.2
angular_velocity = 5.0
angular_velocity_curve = SubResource( 3 )
orbit_velocity = 0.05
orbit_velocity_random = 0.0
linear_accel = 50.0
linear_accel_random = 1.0
damping = 2.0
scale = 0.8
scale_random = 0.3
scale_curve = SubResource( 5 )
color = Color( 0.859375, 0.180278, 0.0469971, 1 )

[node name="Node" type="Node"]

[node name="Fire" type="Particles2D" parent="."]
material = SubResource( 1 )
amount = 32
preprocess = 0.1
process_material = SubResource( 6 )
texture = ExtResource( 1 )
